^C:\USERS\KAGAE\SOURCE\REPOS\PRACTIC15.4\PRACTIC15.4.CPP
C:\USERS\KAGAE\SOURCE\REPOS\PRACTIC15.4\PRACTIC15.4\X64\DEBUG\VC143.PDB
C:\USERS\KAGAE\SOURCE\REPOS\PRACTIC15.4\PRACTIC15.4\X64\DEBUG\VC143.IDB
C:\USERS\KAGAE\SOURCE\REPOS\PRACTIC15.4\PRACTIC15.4\X64\DEBUG\PRACTIC15.4.OBJ
